*** Life<Cell> 8x4 ***

Generation = 0, Population = 9.
--0-
--0-
-0-0
0---
----
-0-0
---0
0---

Generation = 1, Population = 17.
-010
--1-
--0-
---0
00-0
0--1
0001
-0-0

*** Life<Cell> 3x7 ***

Generation = 0, Population = 4.
-0-----
--00---
0------

Generation = 1, Population = 9.
0--0---
0-110--
-000---

*** Life<Cell> 9x6 ***

Generation = 0, Population = 2.
------
-----0
------
------
---0--
------
------
------
------

Generation = 1, Population = 7.
-----0
----0-
-----0
---0--
--0-0-
---0--
------
------
------

*** Life<Cell> 6x5 ***

Generation = 0, Population = 5.
---0-
-----
0--0-
-----
0----
----0

Generation = 1, Population = 11.
--0-0
0----
-00-0
---0-
-0--0
0--0-

*** Life<Cell> 2x9 ***

Generation = 0, Population = 1.
-0-------
---------

Generation = 1, Population = 3.
0-0------
-0-------

*** Life<Cell> 1x4 ***

Generation = 0, Population = 1.
0---

Generation = 1, Population = 1.
-0--

*** Life<Cell> 6x5 ***

Generation = 0, Population = 11.
00---
0----
--0--
--000
-0-0-
0---0

Generation = 2, Population = 17.
-*-0-
*--00
---01
000-*
-01*-
--000

*** Life<Cell> 10x10 ***

Generation = 0, Population = 3.
----------
----------
----------
-----0----
----------
----------
----------
----------
--0-------
---------0

Generation = 1, Population = 10.
----------
----------
-----0----
----0-0---
-----0----
----------
----------
--0-------
-0-0-----0
--0-----0-

*** Life<Cell> 10x2 ***

Generation = 0, Population = 3.
--
--
--
-0
--
-0
0-
--
--
--

Generation = 1, Population = 3.
--
--
-0
0-
--
--
--
0-
--
--

*** Life<Cell> 9x6 ***

Generation = 0, Population = 9.
------
----0-
-0----
00--0-
0-----
---0--
------
-----0
-0----

Generation = 2, Population = 19.
-0----
010-0-
0--0--
0---0-
*00---
1---1-
00----
-----0
-0-0--

Generation = 4, Population = 22.
0*----
0*-1--
-1---0
001---
.0*-0-
----11
------
1--110
10---1

Generation = 6, Population = 33.
0.-1-0
0*11-1
110-10
-0---1
*0.-*0
111-1.
1-0-00
*0-.10
-*1--.

*** Life<Cell> 10x2 ***

Generation = 0, Population = 6.
--
--
00
--
--
--
00
--
0-
0-

Generation = 1, Population = 15.
--
00
11
00
--
00
11
-0
10
10

*** Life<Cell> 7x10 ***

Generation = 0, Population = 20.
----0--0-0
0-------0-
---0--0-00
---------0
0--0-0---0
----00--00
--0---0---

Generation = 1, Population = 34.
0--0-00-0-
-0-00-0-10
0-0-00----
0----00---
-00-010---
0-0-1--01-
-0-00--000

*** Life<Cell> 4x5 ***

Generation = 0, Population = 2.
-----
-----
---0-
--0--

Generation = 1, Population = 3.
-----
---0-
----0
-0---

Generation = 2, Population = 6.
---0-
--0--
-0---
0-0-0

Generation = 3, Population = 4.
----0
-----
--0-0
-0---

*** Life<Cell> 6x9 ***

Generation = 0, Population = 16.
0----0---
---0----0
0----0-0-
---00----
0-0--0-00
00-------

Generation = 1, Population = 20.
-0-00-0-0
--0-0----
-0-------
---110--0
10-----11
-1---0-00
