*** Life<FredkinCell> 20x20 ***

Generation = 0, Population = 9.
0-------------------
-0------------------
----0-0-------------
----0-----0---------
--------------------
------0-------------
---0----------------
--------------------
--------------------
--------------------
---0----------------
--------------------
--------------------
--------------------
--------------------
--------------------
--------------------
--------------------
--------------------
--------------------

Generation = 1, Population = 28.
--------------------
--0-0-0-------------
-0-01--0--0---------
---0100--0-0--------
----0-0---0---------
---0-0-0------------
--0-0-0-------------
---0----------------
--------------------
---0----------------
--0-0---------------
---0----------------
--------------------
--------------------
--------------------
--------------------
--------------------
--------------------
--------------------
--------------------

Generation = 2, Population = 26.
--0-0-0-------------
---01-----0---------
0-0-2-0-0-----------
-00-----0---0-------
---01-1-------------
--------0-0---------
-0---0--------------
------0-------------
--------------------
--------------------
-0---0--------------
--------------------
---0----------------
--------------------
--------------------
--------------------
--------------------
--------------------
--------------------
--------------------

Generation = 3, Population = 60.
-0-01--0--0---------
0-0120--00-0--------
-0103---100-0-------
-1-----010-0-0------
-0-12--0--0-0-------
-0-00000---0--------
0-0-0---0-0---------
-0-----0------------
------0-------------
-0---0--------------
0-0-0-0-------------
-0-0-0--------------
--0-0---------------
---0----------------
--------------------
--------------------
--------------------
--------------------
--------------------
--------------------

Generation = 4, Population = 26.
--0---0-------------
-----10-------------
--21----2-1---------
0-----0-2-----0-----
0-------------------
-10-------0---------
---01-00------------
----0-----0---------
--------------------
------0-------------
---0---0------------
--------------------
--------------------
--------------------
---0----------------
--------------------
--------------------
--------------------
--------------------
--------------------

Generation = 5, Population = 68.
-0-0--10------------
---122-00-0---------
003230-03--0--0-----
1100-0--300--0-0----
1-0---1-0-0---0-----
-21-0-00-0-0--------
-0-1--110-----------
----1000-0-0--------
----0-0---0---------
---0-0--------------
--0-0---0-----------
---0---0------------
--------------------
---0----------------
--0-0---------------
---0----------------
--------------------
--------------------
--------------------
--------------------

*** Life<FredkinCell> 10x10 ***

Generation = 0, Population = 36.
0000000000
0--------0
0--------0
0--------0
0--------0
0--------0
0--------0
0--------0
0--------0
0000000000

Generation = 1, Population = 24.
----------
--000000--
-0------0-
-0------0-
-0------0-
-0------0-
-0------0-
-0------0-
--000000--
----------

Generation = 2, Population = 48.
--000000--
--1----1--
01-0000-10
0-0----0-0
0-0----0-0
0-0----0-0
0-0----0-0
01-0000-10
--1----1--
--000000--

Generation = 3, Population = 40.
-0------0-
0-20--02-0
-2-1--1-2-
-01-00-10-
---0--0---
---0--0---
-01-00-10-
-2-1--1-2-
0-20--02-0
-0------0-

Generation = 4, Population = 40.
---0--0---
--3-00-3--
-3-2--2-3-
0-2-11-2-0
-0-1--1-0-
-0-1--1-0-
0-2-11-2-0
-3-2--2-3-
--3-00-3--
---0--0---

Generation = 5, Population = 24.
----------
----11----
----00----
----22----
-102--201-
-102--201-
----22----
----00----
----11----
----------

Generation = 6, Population = 32.
----00----
---0--0---
---2112---
-02----20-
0-1----1-0
0-1----1-0
-02----20-
---2112---
---0--0---
----00----

Generation = 7, Population = 40.
----11----
--311113--
-3------3-
-1--22--1-
11-2--2-11
11-2--2-11
-1--22--1-
-3------3-
--311113--
----11----

Generation = 8, Population = 40.
--0----0--
--4-22-4--
04-2--2-40
--2-33-2--
-2-3--3-2-
-2-3--3-2-
--2-33-2--
04-2--2-40
--4-22-4--
--0----0--

Generation = 9, Population = 72.
-01011010-
0-513315-0
15--11--51
01--44--10
1314--4131
1314--4131
01--44--10
15--11--51
0-513315-0
-01011010-

Generation = 10, Population = 48.
-12122121-
1--2--2--1
2---22---2
12------21
2-2----2-2
2-2----2-2
12------21
2---22---2
1--2--2--1
-12122121-

*** Life<FredkinCell> 2x2 ***

Generation = 0, Population = 3.
00
0-

Generation = 1, Population = 2.
-1
1-

Generation = 2, Population = 0.
--
--

Generation = 3, Population = 0.
--
--

Generation = 4, Population = 0.
--
--

Generation = 5, Population = 0.
--
--

*** Life<FredkinCell> 2x2 ***

Generation = 0, Population = 1.
0-
--

Generation = 1, Population = 2.
-0
0-

Generation = 2, Population = 0.
--
--

Generation = 3, Population = 0.
--
--

Generation = 4, Population = 0.
--
--

Generation = 5, Population = 0.
--
--

*** Life<FredkinCell> 4x4 ***

Generation = 0, Population = 4.
----
-00-
-00-
----

Generation = 1, Population = 8.
-00-
0--0
0--0
-00-

Generation = 2, Population = 8.
-11-
1--1
1--1
-11-

Generation = 3, Population = 8.
-22-
2--2
2--2
-22-

Generation = 4, Population = 8.
-33-
3--3
3--3
-33-

Generation = 5, Population = 8.
-44-
4--4
4--4
-44-

*** Life<FredkinCell> 1x1 ***

Generation = 0, Population = 1.
0

Generation = 4, Population = 0.
-

*** Life<FredkinCell> 2x2 ***

Generation = 0, Population = 2.
0-
-0

Generation = 2, Population = 0.
--
--

Generation = 4, Population = 0.
--
--

*** Life<FredkinCell> 3x8 ***

Generation = 0, Population = 5.
------0-
-0---0--
--0--0--

Generation = 1, Population = 9.
-0-----0
0---01--
---0010-

Generation = 2, Population = 12.
--0-000-
-------0
0-011210

Generation = 3, Population = 8.
-0--1-1-
0--0--01
--1-----

Generation = 4, Population = 8.
--0---2-
-----1-2
00----10

Generation = 5, Population = 11.
-0-0----
000-0--3
111---2-

*** Life<FredkinCell> 8x3 ***

Generation = 0, Population = 5.
---
-0-
--0
---
---
-00
0--
---

Generation = 1, Population = 9.
-0-
0--
---
--0
-00
-11
--0
0--

Generation = 2, Population = 12.
--0
---
0-0
--1
0-1
0-2
0-1
-00

Generation = 3, Population = 8.
-0-
0--
--1
-0-
1--
---
10-
-1-

Generation = 4, Population = 8.
--0
--0
0--
---
---
-1-
2-1
-20

Generation = 5, Population = 11.
-01
001
-01
0--
-0-
---
--2
-3-

*** Life<FredkinCell> 1x1 ***

Generation = 0, Population = 1.
0

Generation = 1, Population = 0.
-

Generation = 2, Population = 0.
-

Generation = 3, Population = 0.
-

Generation = 4, Population = 0.
-

Generation = 5, Population = 0.
-
