*** Life<ConwayCell> 5x5 ***

Generation = 0, Population = 6.
.....
..*..
..*..
.***.
...*.

Generation = 1, Population = 3.
.....
.....
.....
.*.*.
...*.

Generation = 2, Population = 2.
.....
.....
.....
..*..
..*..

*** Life<ConwayCell> 3x3 ***

Generation = 0, Population = 8.
***
***
**.

Generation = 2, Population = 0.
...
...
...

*** Life<ConwayCell> 7x7 ***

Generation = 0, Population = 8.
.......
.......
..*..*.
.....*.
...*...
.*.....
.**...*

Generation = 1, Population = 4.
.......
.......
.......
....*..
.......
.*.....
.**....

Generation = 2, Population = 4.
.......
.......
.......
.......
.......
.**....
.**....

*** Life<ConwayCell> 6x5 ***

Generation = 0, Population = 11.
..*..
...*.
..***
..*.*
.*...
.*.**

Generation = 4, Population = 8.
.....
..**.
.***.
*.*..
.*...
.....

Generation = 8, Population = 0.
.....
.....
.....
.....
.....
.....

Generation = 12, Population = 0.
.....
.....
.....
.....
.....
.....

*** Life<ConwayCell> 10x3 ***

Generation = 0, Population = 6.
...
..*
..*
...
..*
.*.
...
...
.*.
*..

Generation = 1, Population = 0.
...
...
...
...
...
...
...
...
...
...

*** Life<ConwayCell> 9x9 ***

Generation = 0, Population = 9.
.........
.....**..
...*.....
.........
...*.....
....*....
..*......
.....*...
.*......*

Generation = 5, Population = 0.
.........
.........
.........
.........
.........
.........
.........
.........
.........

Generation = 10, Population = 0.
.........
.........
.........
.........
.........
.........
.........
.........
.........

*** Life<ConwayCell> 7x4 ***

Generation = 0, Population = 7.
*...
...*
.*..
....
...*
..*.
*..*

Generation = 1, Population = 2.
....
....
....
....
....
..**
....

*** Life<ConwayCell> 4x5 ***

Generation = 0, Population = 2.
*....
.....
.....
....*

Generation = 1, Population = 0.
.....
.....
.....
.....

Generation = 2, Population = 0.
.....
.....
.....
.....

*** Life<ConwayCell> 7x7 ***

Generation = 0, Population = 4.
.*.....
..*....
...*...
....*..
.......
.......
.......

Generation = 4, Population = 0.
.......
.......
.......
.......
.......
.......
.......

Generation = 8, Population = 0.
.......
.......
.......
.......
.......
.......
.......

*** Life<ConwayCell> 1x1 ***

Generation = 0, Population = 1.
*

Generation = 1, Population = 0.
.

Generation = 2, Population = 0.
.

Generation = 3, Population = 0.
.

Generation = 4, Population = 0.
.

Generation = 5, Population = 0.
.
