*** Life<ConwayCell> 5x6 ***

Generation = 0, Population = 3.
....*.
...*..
......
..*...
......

Generation = 5, Population = 0.
......
......
......
......
......

Generation = 10, Population = 0.
......
......
......
......
......

*** Life<ConwayCell> 8x1 ***

Generation = 0, Population = 2.
*
.
.
.
.
.
*
.

Generation = 2, Population = 0.
.
.
.
.
.
.
.
.

Generation = 4, Population = 0.
.
.
.
.
.
.
.
.

Generation = 6, Population = 0.
.
.
.
.
.
.
.
.

Generation = 8, Population = 0.
.
.
.
.
.
.
.
.

Generation = 10, Population = 0.
.
.
.
.
.
.
.
.

*** Life<ConwayCell> 5x4 ***

Generation = 0, Population = 3.
....
....
.*..
.**.
....

Generation = 3, Population = 4.
....
....
.**.
.**.
....

Generation = 6, Population = 4.
....
....
.**.
.**.
....

*** Life<ConwayCell> 3x5 ***

Generation = 0, Population = 3.
.*...
.....
.**..

Generation = 1, Population = 2.
.....
.**..
.....

Generation = 2, Population = 0.
.....
.....
.....

Generation = 3, Population = 0.
.....
.....
.....

Generation = 4, Population = 0.
.....
.....
.....

Generation = 5, Population = 0.
.....
.....
.....

*** Life<ConwayCell> 3x2 ***

Generation = 0, Population = 1.
..
.*
..

Generation = 1, Population = 0.
..
..
..

Generation = 2, Population = 0.
..
..
..

Generation = 3, Population = 0.
..
..
..

Generation = 4, Population = 0.
..
..
..

Generation = 5, Population = 0.
..
..
..

*** Life<ConwayCell> 5x1 ***

Generation = 0, Population = 1.
.
.
.
*
.

Generation = 1, Population = 0.
.
.
.
.
.

Generation = 2, Population = 0.
.
.
.
.
.

*** Life<ConwayCell> 7x9 ***

Generation = 0, Population = 8.
.........
..**.*...
.........
........*
......*..
......*..
*.*......

Generation = 50, Population = 0.
.........
.........
.........
.........
.........
.........
.........

Generation = 100, Population = 0.
.........
.........
.........
.........
.........
.........
.........

*** Life<ConwayCell> 2x2 ***

Generation = 0, Population = 3.
**
*.

Generation = 1, Population = 4.
**
**

Generation = 2, Population = 4.
**
**

*** Life<ConwayCell> 5x1 ***

Generation = 0, Population = 1.
.
.
.
.
*

Generation = 1, Population = 0.
.
.
.
.
.

Generation = 2, Population = 0.
.
.
.
.
.

Generation = 3, Population = 0.
.
.
.
.
.

Generation = 4, Population = 0.
.
.
.
.
.

Generation = 5, Population = 0.
.
.
.
.
.

*** Life<ConwayCell> 2x5 ***

Generation = 0, Population = 2.
*..*.
.....

Generation = 1, Population = 0.
.....
.....

Generation = 2, Population = 0.
.....
.....

Generation = 3, Population = 0.
.....
.....

*** Life<ConwayCell> 6x4 ***

Generation = 0, Population = 10.
*..*
.*..
*...
**..
*.**
.*..

Generation = 1, Population = 9.
....
**..
*...
*.*.
*.*.
.**.

Generation = 2, Population = 9.
....
**..
*...
*...
*.**
.**.

Generation = 3, Population = 10.
....
**..
*...
*...
*.**
.***

Generation = 4, Population = 8.
....
**..
*...
*...
*..*
.*.*

Generation = 5, Population = 9.
....
**..
*...
**..
***.
..*.

*** Life<ConwayCell> 5x6 ***

Generation = 0, Population = 11.
*.*.*.
.*....
*.*...
.*.***
.....*

Generation = 25, Population = 0.
......
......
......
......
......

Generation = 50, Population = 0.
......
......
......
......
......

*** Life<ConwayCell> 8x9 ***

Generation = 0, Population = 15.
....*.*..
....*.***
*......*.
.*...*..*
.........
.........
....**...
...*..*..

Generation = 50, Population = 10.
......**.
.....*..*
......**.
.........
.........
.........
....**...
....**...

Generation = 100, Population = 10.
......**.
.....*..*
......**.
.........
.........
.........
....**...
....**...

*** Life<ConwayCell> 2x6 ***

Generation = 0, Population = 2.
....*.
....*.

Generation = 5, Population = 0.
......
......

Generation = 10, Population = 0.
......
......
