*** Life<FredkinCell> 5x5 ***

Generation = 0, Population = 7.
-0-0-
-0-0-
-0-0-
---0-
-----

Generation = 1, Population = 14.
01-10
0---0
01--0
-0010
---0-

Generation = 2, Population = 6.
-2-2-
-0---
-----
---2-
-0-1-

Generation = 3, Population = 16.
03--0
0100-
-1-0-
-0030
0--20

Generation = 4, Population = 0.
-----
-----
-----
-----
-----

Generation = 5, Population = 0.
-----
-----
-----
-----
-----

Generation = 6, Population = 0.
-----
-----
-----
-----
-----

Generation = 7, Population = 0.
-----
-----
-----
-----
-----

Generation = 8, Population = 0.
-----
-----
-----
-----
-----

Generation = 9, Population = 0.
-----
-----
-----
-----
-----

Generation = 10, Population = 0.
-----
-----
-----
-----
-----

*** Life<FredkinCell> 10x10 ***

Generation = 0, Population = 11.
----0---00
----0----0
----0-----
----0-----
----------
----------
----0-----
----0-----
----0-----
----0-----

Generation = 1, Population = 26.
---010-01-
---0-0---1
---0-0---0
---010----
----0-----
----0-----
---010----
---0-0----
---0-0----
---010----

Generation = 2, Population = 28.
--0----12-
--0-0-00-2
--0-0-0-01
--0-2-0--0
----------
----------
--0-2-0---
--0-0-0---
--0-0-0---
--0---0---

Generation = 3, Population = 42.
-0101---3-
-0--1----3
-0-----012
-01-3-10-1
--0-0-0--0
--0-0-0---
-01-3-10--
-0-----0--
-0--1--0--
-0101010--

Generation = 4, Population = 28.
0----0-1--
0---20-004
0--------3
0---4---0-
--------01
---------0
0---4---0-
0-------0-
0---2---0-
0---2---0-

Generation = 5, Population = 50.
10---1-2-0
-0-03-----
-0---0-014
10-0-0-011
0---0--0--
0---0---01
10-0-0-01-
-0-----0-0
-0-030-0-0
10-030-010

Generation = 6, Population = 32.
2-10------
---140--0-
--0--1--2-
----41-12-
----1-010-
----1--0-2
----4----0
--0-0-0-01
----4---0-
2---4-----

Generation = 7, Population = 44.
--2--1--3-
0-0---0014
-0--0-0--4
--10--1-31
---0-01---
---0-0-103
--10-010--
-0--------
0-00-0001-
-0-050--1-

Generation = 8, Population = 26.
20301---4-
-0114---2-
--0-----2-
--2-----4-
----------
---------4
--2------0
--0-----0-
--1-4----0
--1-----20

Generation = 9, Population = 46.
3141-1-250
---2-0-0-4
----0--0-4
-030---151
--0-----01
--0-----05
-030-----1
-0-00--0-1
-0---0--11
-0205--03-

Generation = 10, Population = 40.
4----2----
00-341--2-
-000--0-2-
1141--1-62
--------12
-------1-6
1-4----0--
0-0-1-0-0-
0---4-00--
2---6-11--

*** Life<FredkinCell> 10x10 ***

Generation = 0, Population = 9.
----0-----
----0-----
----0-----
----------
---000----
----------
----0-----
----0-----
----0-----
----------

Generation = 1, Population = 25.
---010----
---0-0----
---010----
---0-0----
--01-10---
---0-0----
---010----
---0-0----
---010----
----0-----

Generation = 2, Population = 26.
--0---0---
--0---0---
--01-10---
----0-----
-012-210--
----0-----
--01-10---
--0---0---
--0-2-0---
----1-----

Generation = 3, Population = 45.
-010-010--
-0-----0--
-0-212-0--
-0-0-0-0--
01-3-3-10-
-0-0-0-0--
-0-212-0--
-0--0--0--
-01-3-10--
--00200---

Generation = 4, Population = 26.
0--1-1--0-
0---0---0-
0-------0-
----0-----
12-----210
----0-----
0---2---0-
0-------0-
0--0-0--0-
----3-----

Generation = 5, Population = 57.
101-1-1010
-0-----0-0
10-----010
-0-0-0-0-0
231---13-1
-0-010-0-0
10-232-010
-0-000-0-0
101-3-1010
0-------0-

Generation = 6, Population = 53.
212---21--
0---0-----
2102-201-1
0-0---0-0-
3-230324--
0-0-2-0-0-
21-3-3-1-1
0-0---0---
-12040212-
1-0-3-0-1-

Generation = 7, Population = 55.
--3111321-
-0-------0
3-1313121-
-0-000----
--3-1--51-
-01-3-1---
32--3---1-
1-10001000
12--5----0
-010401020

Generation = 8, Population = 24.
--4-----2-
--0-----0-
--2424--2-
----------
-343---621
----------
--0-----2-
--2-----1-
--20-0--2-
----5-----

Generation = 9, Population = 52.
-151---230
-0--00-0-0
-1---51231
-0--00-0-0
34-41-27-2
-0-0---0-0
-213---131
-0---0-0-0
-2-15-2130
--1-----2-

Generation = 10, Population = 42.
2--2-13---
0---1-0---
3-2-26---2
--0-----0-
45---338--
--1-----0-
33--3302-2
1-----1---
132260324-
----5-1-3-

*** Life<FredkinCell> 30x10 ***

Generation = 0, Population = 27.
----0-----
----0-----
----0-----
----------
---000----
----------
----0-----
----0-----
----0-----
----------
----0-----
----0-----
----0-----
----------
---000----
----------
----0-----
----0-----
----0-----
----------
----0-----
----0-----
----0-----
----------
---000----
----------
----0-----
----0-----
----0-----
----------

Generation = 1, Population = 73.
---010----
---0-0----
---010----
---0-0----
--01-10---
---0-0----
---010----
---0-0----
---010----
----------
---010----
---0-0----
---010----
---0-0----
--01-10---
---0-0----
---010----
---0-0----
---010----
----------
---010----
---0-0----
---010----
---0-0----
--01-10---
---0-0----
---010----
---0-0----
---010----
----0-----

Generation = 2, Population = 74.
--0---0---
--0---0---
--01-10---
----0-----
-012-210--
----0-----
--01-10---
--0---0---
--0---0---
----------
--0---0---
--0---0---
--01-10---
----0-----
-012-210--
----0-----
--01-10---
--0---0---
--0---0---
----------
--0---0---
--0---0---
--01-10---
----0-----
-012-210--
----0-----
--01-10---
--0---0---
--0-2-0---
----1-----

Generation = 3, Population = 125.
-010-010--
-0-----0--
-0-212-0--
-0-0-0-0--
01-3-3-10-
-0-0-0-0--
-0-212-0--
-0-----0--
-010-010--
----------
-010-010--
-0-----0--
-0-212-0--
-0-0-0-0--
01-3-3-10-
-0-0-0-0--
-0-212-0--
-0-----0--
-010-010--
----------
-010-010--
-0-----0--
-0-212-0--
-0-0-0-0--
01-3-3-10-
-0-0-0-0--
-0-212-0--
-0--0--0--
-01-3-10--
--00200---

Generation = 4, Population = 76.
0--1-1--0-
0---0---0-
0-------0-
----0-----
12-----210
----0-----
0-------0-
0---0---0-
0--1-1--0-
----------
0--1-1--0-
0---0---0-
0-------0-
----0-----
12-----210
----0-----
0-------0-
0---0---0-
0--1-1--0-
----------
0--1-1--0-
0---0---0-
0-------0-
----0-----
12-----210
----0-----
0---2---0-
0-------0-
0--0-0--0-
----3-----

Generation = 5, Population = 153.
101-1-1010
-0-----0-0
10-----010
-0-0-0-0-0
231---13-1
-0-0-0-0-0
10-----010
-0-----0-0
101-1-1010
----------
101-1-1010
-0-----0-0
10-----010
-0-0-0-0-0
231---13-1
-0-0-0-0-0
10-----010
-0-----0-0
101-1-1010
----------
101-1-1010
-0-----0-0
10-----010
-0-0-0-0-0
231---13-1
-0-010-0-0
10-232-010
-0-000-0-0
101-3-1010
0-------0-

Generation = 6, Population = 141.
212---21--
0---0-----
2102-201-1
0-0---0-0-
3-23-324--
0-0---0-0-
2102-201-1
0---0-----
212---21--
----------
212---21--
0---0-----
2102-201-1
0-0---0-0-
3-23-324--
0-0---0-0-
2102-201-1
0---0-----
212---21--
----------
212---21--
0---0-----
2102-201-1
0-0---0-0-
3-230324--
0-0-2-0-0-
21-3-3-1-1
0-0---0---
-12040212-
1-0-3-0-1-

Generation = 7, Population = 145.
--3111321-
-0-------0
3-1313121-
-0-0-0----
--34-4-51-
-0-0-0----
3-1313121-
-0-------0
--3111321-
----------
--3111321-
-0-------0
3-1313121-
-0-0-0----
--34-4-51-
-0-0-0----
3-1313121-
-0-------0
--3111321-
----------
--3111321-
-0-------0
3-1313121-
-0-000----
--3-1--51-
-01-3-1---
32--3---1-
1-10001000
12--5----0
-010401020

Generation = 8, Population = 72.
--4-----2-
--0-----0-
--24-4--2-
----0-----
-345---621
----0-----
--24-4--2-
--0-----0-
--4-----2-
----------
--4-----2-
--0-----0-
--24-4--2-
----0-----
-345---621
----0-----
--24-4--2-
--0-----0-
--4-----2-
----------
--4-----2-
--0-----0-
--2424--2-
----------
-343---621
----------
--0-----2-
--2-----1-
--20-0--2-
----5-----

Generation = 9, Population = 150.
-151---230
-0---0-0-0
-1-51-1231
-0-0---0-0
34-60-27-2
-0-0---0-0
-1-51-1231
-0---0-0-0
-151---230
----------
-151---230
-0---0-0-0
-1-51-1231
-0-0---0-0
34-60-27-2
-0-0---0-0
-1-51-1231
-0---0-0-0
-151---230
----------
-151---230
-0--00-0-0
-1---51231
-0--00-0-0
34-41-27-2
-0-0---0-0
-213---131
-0---0-0-0
-2-15-2130
--1-----2-

Generation = 10, Population = 114.
2--2113---
0-----0---
3---242--2
----0-0-0-
45-71-38--
----0-0-0-
3---242--2
0-----0---
2--2113---
----------
2--2113---
0-----0---
3---242--2
----0-0-0-
45-71-38--
----0-0-0-
3---242--2
0-----0---
2--2113---
----------
2--2-13---
0---1-0---
3-2-26---2
--0-----0-
45---338--
--1-----0-
33--3302-2
1-----1---
132260324-
----5-1-3-

*** Life<FredkinCell> 10x30 ***

Generation = 0, Population = 27.
----0--------0--------0-------
----0--------0--------0-------
----0--------0--------0-------
------------------------------
---000------000------000------
------------------------------
----0--------0--------0-------
----0--------0--------0-------
----0--------0--------0-------
------------------------------

Generation = 1, Population = 75.
---010------010------010------
---0-0------0-0------0-0------
---010------010------010------
---0-0------0-0------0-0------
--01-10----01-10----01-10-----
---0-0------0-0------0-0------
---010------010------010------
---0-0------0-0------0-0------
---010------010------010------
----0--------0--------0-------

Generation = 2, Population = 78.
--0---0----0---0----0---0-----
--0---0----0---0----0---0-----
--01-10----01-10----01-10-----
----0--------0--------0-------
-012-210--012-210--012-210----
----0--------0--------0-------
--01-10----01-10----01-10-----
--0---0----0---0----0---0-----
--0-2-0----0-2-0----0-2-0-----
----1--------1--------1-------

Generation = 3, Population = 135.
-010-010--010-010--010-010----
-0-----0--0-----0--0-----0----
-0-212-0--0-212-0--0-212-0----
-0-0-0-0--0-0-0-0--0-0-0-0----
01-3-3-1001-3-3-1001-3-3-10---
-0-0-0-0--0-0-0-0--0-0-0-0----
-0-212-0--0-212-0--0-212-0----
-0--0--0--0--0--0--0--0--0----
-01-3-10--01-3-10--01-3-10----
--00200----00200----00200-----

Generation = 4, Population = 72.
0--1-1--00--1-1--00--1-1--0---
0---0---00---0---00---0---0---
0-------00-------00-------0---
----0--------0--------0-------
12-----2--2-----2--2-----210--
----0--------0--------0-------
0---2---00---2---00---2---0---
0-------00-------00-------0---
0--0-0--00--0-0--00--0-0--0---
----3--------3--------3-------

Generation = 5, Population = 152.
101-1-10--01-1-10--01-1-1010--
-0-----0110-----0110-----0-0--
10-----0--0-----0--0-----010--
-0-0-0-0000-0-0-0000-0-0-0-0--
231---1-00-1---1-00-1---13-10-
-0-010-0000-010-0000-010-0-0--
10-232-0--0-232-0--0-232-010--
-0-000-0110-000-0110-000-0-0--
101-3-10--01-3-10--01-3-1010--
0-------00-------00-------0---

Generation = 6, Population = 152.
212---2----2---2----2---21--0-
0---0--1--1--0--1--1--0-----0-
2102-20-00-02-20-00-02-201-10-
0-0---0-11-0---0-11-0---0-0---
3-2303--11--303--11--30324-210
0-0-2-0-11-0-2-0-11-0-2-0-0---
21-3-3--00--3-3--00--3-3-1-10-
0-0---01--10---01--10---0---0-
-120402-00-20402-00-2040212-0-
1-0-3-0-11-0-3-0-11-0-3-0-1---

Generation = 7, Population = 167.
--3111------111------111321010
-0----0----0---0----0--------0
3-1313-0--0-313-0--0-3131212-0
-0-0001-22-10001-22-1000---0-0
--3-1412222141412222141--5-3-1
-01-3---22---3---22---3-1--0-0
32--3-0----0-3-0----0-3---12-0
1-1000-2112-000-2112-000100--0
12--5-30--03-5-30--03-5-----10
-010401----10401----104010200-

Generation = 8, Population = 45.
--4--2------2-2------2--------
--0--0------0-0------0--------
--242--------2--------24------
------------------------------
-343252----25-52----252-------
------------------------------
--0--3------3-3------3--------
--2--1------1-1------1--------
--20-------------------0------
----5--------5--------5-------

Generation = 9, Population = 100.
-151132----23-32----231-------
-0---10----01010----01-0------
-1--3-----------------351-----
-0---01----10001----10-0------
34----32--236-632--23-33------
-0-03-0----0---0----0-3-------
-213340----04-40----043-------
-0--020----02-20----0200------
-2-1-0------050------0--2-----
--1--0------0-0------0--------

Generation = 10, Population = 99.
2----4-0--0--1--0--0-42-------
0--00--1--1-2-2-1--1---1------
3-24-3---------------34-22----
--0--1------1-1------1--------
45432-43223--1--322345--2-----
--1--0------0-0------0--------
33-4-510--01---10--0154-------
1--0---2--2-303-2--2--11------
132-5-------1-1----------1----
----511----11511----115-1-----

*** Life<FredkinCell> 30x10 ***

Generation = 0, Population = 27.
----0-----
----0-----
----0-----
----------
---000----
----------
----0-----
----0-----
----0-----
----0-----
----0-----
----0-----
----------
---000----
----------
----0-----
----0-----
----0-----
----0-----
----0-----
----0-----
----------
---000----
----------
----0-----
----0-----
----0-----
----------
----------
----------

Generation = 1, Population = 69.
---010----
---0-0----
---010----
---0-0----
--01-10---
---0-0----
---010----
---0-0----
---0-0----
---0-0----
---0-0----
---010----
---0-0----
--01-10---
---0-0----
---010----
---0-0----
---0-0----
---0-0----
---0-0----
---010----
---0-0----
--01-10---
---0-0----
---010----
---0-0----
---010----
----0-----
----------
----------

Generation = 2, Population = 79.
--0---0---
--0---0---
--01-10---
----0-----
-012-210--
----0-----
--01-10---
--0-0-0---
--0---0---
--0---0---
--0-0-0---
--01-10---
----0-----
-012-210--
----0-----
--01-10---
--0-0-0---
--0---0---
--0---0---
--0-0-0---
--01-10---
----0-----
-012-210--
----0-----
--01-10---
--0---0---
--0-2-0---
----1-----
----0-----
----------

Generation = 3, Population = 128.
-010-010--
-0-----0--
-0-212-0--
-0-0-0-0--
01-3-3-10-
-0-0-0-0--
-0-2-2-0--
-0-0-0-0--
-0-000-0--
-0-000-0--
-0-0-0-0--
-0-2-2-0--
-0-0-0-0--
01-3-3-10-
-0-0-0-0--
-0-2-2-0--
-0-0-0-0--
-0-000-0--
-0-000-0--
-0-0-0-0--
-0-2-2-0--
-0-0-0-0--
01-3-3-10-
-0-0-0-0--
-0-212-0--
-0--0--0--
-01-3-10--
--00-00---
---010----
----0-----

Generation = 4, Population = 78.
0--1-1--0-
0---0---0-
0-------0-
----0-----
12-----210
----------
0-------0-
0---0---0-
0--111--0-
0--111--0-
0---0---0-
0-------0-
----------
12-----210
----------
0-------0-
0---0---0-
0--111--0-
0--111--0-
0---0---0-
0-------0-
----------
12-----210
----0-----
0---2---0-
0-------0-
0--040--0-
----------
----2-----
----1-----

Generation = 5, Population = 151.
101-1-1010
-0-----0-0
10-----010
-0-0-0-0-0
231-0-13-1
-0-----0-0
10--1--010
-0--1--0-0
-00---00-0
-00---00-0
-0--1--0-0
10--1--010
-0-----0-0
231---13-1
-0-----0-0
10--1--010
-0--1--0-0
-00---00-0
-00---00-0
-0--1--0-0
10--1--010
-0-----0-0
231-0-13-1
-0-010-0-0
10-232-010
-0-0-0-0-0
1011-11010
0--0-0--0-
---030----
---020----

Generation = 6, Population = 158.
212---21--
0---0-----
2102-201-1
0-0-0-0-0-
3-23-324--
0-------0-
21022201-1
---020--0-
01-111-1--
01-111-1--
---020--0-
21022201-1
0---0---0-
3-23-324--
0---0---0-
21022201-1
---020--0-
01-111-1--
01-111-1--
---020--0-
21022201-1
0-------0-
3-231324--
0-0---0-0-
21-343-1-1
0-0-0-0---
-1-2-2-12-
1---1---1-
0-01410-0-
--0-3-0---

Generation = 7, Population = 120.
--3111321-
-0-------0
3-13-3121-
-0--------
---404351-
----0--0--
---333-2--
---1-1-0--
---2-2-2--
---2-2-2--
---1-1-0--
---3-3-2--
---010-0--
--34-4-51-
---010-0--
---3-3-2--
---1-1-0--
---2-2-2--
---2-2-2--
---1-1-0--
---333-2--
-------0--
------351-
-010-01---
32-454--1-
1---1--000
1-1---12-0
2-00200--0
1-------10
001040100-

Generation = 8, Population = 76.
--4-----2-
--0-0---0-
--24-4--2-
----0-----
-3251--621
---0-0----
--0-4---1-
--0-2---0-
--0-----0-
--0-----0-
--0-----0-
--0-2---1-
---1-1----
-345---621
---1-1----
--0-2---1-
--0-----0-
--0-----0-
--0-----0-
--0-2---0-
--0-----1-
---000----
-323---621
----1-----
--0-6---2-
--0-2---1-
--2-----2-
----------
----------
----------

Generation = 9, Population = 155.
-1511--230
-0-0---0-0
-1-5--1231
-0-01--0-0
34-6--37-2
-001--00-0
-1135--221
-0--31-0-0
-1-21--2-0
-1-2---2-0
-0-12--0-0
-113---221
-0021-00-0
34-60-27-2
-0021-00-0
-113---221
-0-12--0-0
-1-2---2-0
-1-21--2-0
-0---1-0-0
-11--3-221
-00--100-0
34--1337-2
-0--20-0-0
-21--4-131
-0--30-0-0
-1324--230
--0-----1-
----------
----------

Generation = 10, Population = 135.
2--2213---
0-0-------
3----42--2
---1200-0-
452--4-8--
-112-0-10-
2224---3-2
0--142--0-
0-----0---
0---1-0---
0-02310-0-
22242--3-2
-11----10-
45-71-38--
-11----10-
22242--3-2
0-02310-0-
0---1-0---
0---2-0---
0--1-2--0-
22-33-03-2
-1-0-2110-
45-3--48--
---0-11-0-
33246--2-2
1-0-------
1-4---1-4-
--1-2---2-
--0-----1-
----------

*** Life<FredkinCell> 10x10 ***

Generation = 0, Population = 7.
----------
----------
----------
---0-0----
--0-0-0---
---0-0----
----------
----------
----------
----------

Generation = 1, Population = 8.
----------
----------
---0-0----
----0-----
-0-----0--
----0-----
---0-0----
----------
----------
----------

Generation = 2, Population = 18.
----------
---0-0----
--0-0-0---
-0-----0--
0-0---0-0-
-0-----0--
--0-0-0---
---0-0----
----------
----------

Generation = 3, Population = 19.
---0-0----
----0-----
---0-0----
--0-0-0---
---0-0---0
--0-0-0---
---0-0----
----0-----
---0-0----
----------

Generation = 4, Population = 21.
--0-0-0---
---0-0----
----------
-0-----0-0
--0---0-0-
-0-----0-0
----------
---0-0----
--0-0-0---
---0-0----

Generation = 5, Population = 27.
-0-0-0-0--
----0-----
-0-0-0-0-0
0-------0-
-0-0-0---0
0-------0-
-0-0-0-0-0
----0-----
-0-----0--
----0-----

Generation = 6, Population = 26.
0---0---0-
---0-0---0
----0---0-
-0-------0
0-----0-0-
-0-------0
----0---0-
---------0
0-0---0-0-
-0-0-0-0--

Generation = 7, Population = 34.
-0-----0--
0-0---0-0-
-0-----0-0
--0-0-0-0-
-0---0---0
--0-0-0-0-
-0-0-0-0-0
0-0-0-0-0-
-0-----0--
--0---0---

Generation = 8, Population = 25.
----------
---0-0----
--0-0-0---
-0---0-0-0
0-0-0-0-0-
-0-0---0-0
----------
---0-0----
--0-0-0---
---0-0----

Generation = 9, Population = 21.
---0-0----
----0-----
---0-----0
--0-0---0-
---0-0---0
--0-----0-
-0---0-0-0
----0-----
-0-----0--
----0-----

Generation = 10, Population = 26.
--0-0-0---
---0-----0
----0-----
-0-----0-0
--0-0-0-0-
---------0
0-------0-
---0-----0
0-0---0-0-
-0-0-0-0--

*** Life<FredkinCell> 10x10 ***

Generation = 0, Population = 20.
-0------0-
0-0----0-0
0-0----0-0
----------
----------
----------
----------
0-0----0-0
0-0----0-0
-0------0-

Generation = 1, Population = 36.
----------
1010--0101
1-10--01-1
0-0----0-0
----------
----------
0-0----0-0
1-10--01-1
1010--0101
----------

Generation = 2, Population = 52.
0000--0000
--2-00-2--
-02-00-20-
1-1----1-1
0-0----0-0
0-0----0-0
1-1----1-1
-02-00-20-
--2-00-2--
0000--0000

Generation = 3, Population = 52.
1-11--11-1
10-0--0-01
-13----31-
20-0000-02
---0--0---
---0--0---
20-0000-02
-13----31-
10-0--0-01
1-11--11-1

Generation = 4, Population = 64.
202-00-202
---1001---
1240000421
3-1----1-3
000----000
000----000
3-1----1-3
1240000421
---1001---
202-00-202

*** Life<FredkinCell> 5x5 ***

Generation = 0, Population = 11.
0---0
0---0
-000-
0---0
0---0

Generation = 1, Population = 18.
10-01
1-0-1
01-10
1-0-1
10-01

Generation = 2, Population = 10.
-101-
-----
12-21
-----
-101-

Generation = 3, Population = 18.
12-21
1-0-1
23-32
1-0-1
12-21

Generation = 4, Population = 10.
-303-
-----
34-43
-----
-303-

Generation = 5, Population = 18.
14-41
1-0-1
45-54
1-0-1
14-41

*** Life<FredkinCell> 4x4 ***

Generation = 0, Population = 8.
0--0
-00-
-00-
0--0

Generation = 1, Population = 0.
----
----
----
----

Generation = 2, Population = 0.
----
----
----
----

Generation = 3, Population = 0.
----
----
----
----

Generation = 4, Population = 0.
----
----
----
----

Generation = 5, Population = 0.
----
----
----
----
